Separation,Fugacity (Bar),Hydrogen Density
,,(kg/m3)
4.67,0.010132568,8.2067E-05
4.67,0.101331751,0.000838907
4.67,1.013925277,0.008256855
4.67,10.20022306,0.080334502
4.67,20.53676402,0.16454439
4.67,31.01093865,0.242416881
4.67,41.62407353,0.314932219
4.67,52.37750616,0.400259131
4.67,63.272585,0.4782684
4.67,74.31066957,0.556688004
4.67,85.49313056,0.643172974
4.67,96.82134985,0.713071285
4.67,108.2967207,0.775077484
4.67,231.4585192,1.515960372
4.67,370.9552086,2.135110503
4.67,528.3800714,2.711403409
4.67,705.4590946,3.310036783
4.67,904.0608285,3.858974012
4.67,1126.206908,4.302135962
4.67,1374.083277,4.682379857
4.67,1650.052156,5.15335341
4.67,1956.664803,5.516727971
,,
5.67,1.013925277,0.089565514
5.67,10.20022306,0.854643562
5.67,108.2967207,5.79488875
5.67,1956.664803,15.99993626
,,
6.67,1.013925277,0.171481937
6.67,10.20022306,1.613001972
6.67,108.2967207,10.17530945
6.67,1956.664803,26.93498941
,,
7.67,1.013925277,0.178716431
7.67,10.20022306,1.680399617
7.67,108.2967207,10.80070082
7.67,1956.664803,28.39585789
,,
Empty,1.013925277,0.083430184
Empty,10.20022306,0.802258011
Empty,108.2967207,7.264403121
Empty,1956.664803,37.29304333
,,
Single,0.101331751,0.044224849
Single,1.013925277,0.098009026
Single,10.20022306,0.961386044
Single,108.2967207,8.053175893
Single,1956.664803,34.42890835
