0,0.101325,0.009315526
0,1.01325,0.09278438
0,10.1325,0.690839668
0,10.20022306,0.690839668
0,20.53676402,1.784428557
0,31.01093865,2.625305636
0,52.37750616,4.221136615
0,74.31066957,5.714005947
0,101.325,7.789844652
0,202.65,13.52532867
0,303.975,18.06803999
0,506.625,24.85943265
0,709.275,29.89762666
0,1013.25,35.39988075
