\relax 
\citation{Parmesan2003}
\citation{Schuth2011,Eberle2009,Muller2013,McKeown2007}
\citation{Germain2009}
\citation{Muller2013}
\citation{Mandal2010,Eberle2009,Liu2010,Schlapbach2001}
\select@language{british}
\@writefile{toc}{\select@language{british}}
\@writefile{lof}{\select@language{british}}
\@writefile{lot}{\select@language{british}}
\@writefile{toc}{\contentsline {section}{\numberline {1}Introduction}{1}}
\citation{Eberle2009}
\citation{Mandal2010}
\citation{Mandal2010,Muller2013,Eberle2009,Duren2009,Pukazhselvan2012,Fairen-Jimenez2011}
\citation{Trewin2008,McKeown2007,McKeown2006,Pukazhselvan2012}
\citation{Abbott2011}
\citation{McKeown2007,Germain2009,Dawson2012,Muller2013}
\citation{Larsen2011,Madkour2013,Minelli2013,Heuchel2008,McKeown2006}
\citation{Wood2007,Abbott2011,Jiang2013}
\citation{Medronho2012,Krishnamachari2011,Perez2010,Rahimi2011,Oehme2015}
\citation{Brown2000,Matthews2006,Klemm2005}
\citation{Oehme2015,Klemm2005,Atalla1990a,Ding2006,Matthews2006,Ciolacu2008,Nishiyama2003}
\citation{Oehme2015,Ding2006,Nishiyama2003,Cosgrove2005}
\citation{Namboori2008,Damm1997,Miyamoto2015,Miyamoto2016}
\citation{Guvench2011}
\citation{Momany2009}
\citation{Banks2005}
\citation{Hadden2013,Bergenstrahle2010,Bergenstrahle2008a}
\citation{Liao2012,Kulasinski2014,Tanaka2006,Djahedi2015}
\citation{Bergenstrahle2007,Chen2012,Chen2004a,Wohlert2012}
\citation{Bazooyar2013,Glasser2012,Liao2012,Heiner1998}
\citation{Li2015,Mazeau2012,Woodcock1995,DaSilvaPerez2004}
\citation{Todorov2006}
\citation{Purton2013}
\citation{Yong2016}
\citation{Gomes2012}
\citation{Gomes2012}
\citation{Nishiyama2003a}
\citation{VanderHart1987}
\@writefile{toc}{\contentsline {section}{\numberline {2}Methods}{3}}
\newlabel{Methods}{{2}{3}}
\citation{Park2006,Guo2006}
\newlabel{fig_worflow}{{1}{4}}
\@writefile{toc}{\contentsline {subsection}{\numberline {2.1}Structure Generation}{4}}
\citation{Yong2016,Damm1997,Maxwell2015,Jorgensen1996,Kony2001}
\newlabel{fig_cellulose}{{2}{5}}
\newlabel{multiprogram}{{1}{5}}
\newlabel{table_protocols}{{1}{5}}
\@writefile{toc}{\contentsline {subsection}{\numberline {2.2}DL\_FIELD Processing}{6}}
\@writefile{toc}{\contentsline {subsection}{\numberline {2.3}Structural Relaxation}{6}}
\@writefile{toc}{\contentsline {subsection}{\numberline {2.4}Gas Sorption}{6}}
\newlabel{insertion}{{2.4}{6}}
\citation{Spycher1988}
\newlabel{fugacity}{{2}{7}}
\newlabel{table_fugacity_constants}{{2.4}{7}}
\newlabel{eq_mu_id_gas}{{1}{7}}
\newlabel{fugacity2}{{3}{7}}
\citation{Djahedi2015,Nishiyama2003a}
\@writefile{toc}{\contentsline {subsection}{\numberline {2.5}Gas Diffusion}{8}}
\newlabel{MSD}{{4}{8}}
\@writefile{toc}{\contentsline {section}{\numberline {3}Results}{8}}
\@writefile{toc}{\contentsline {subsection}{\numberline {3.1}Stability}{8}}
\newlabel{stability}{{3}{8}}
\@writefile{toc}{\contentsline {subsection}{\numberline {3.2}Sorption}{9}}
\citation{Bimbo2013}
\newlabel{lam}{{3}{10}}
\newlabel{table_hydrogen_density}{{4}{11}}
\newlabel{fig_pore_diff}{{4}{11}}
\@writefile{toc}{\contentsline {subsection}{\numberline {3.3}Diffusion}{11}}
\newlabel{fig_pore_diff_XYZ}{{6}{12}}
\newlabel{fig__amor_diff}{{7}{12}}
\newlabel{fig_pinned_diff}{{3.2}{13}}
\@writefile{toc}{\contentsline {section}{\numberline {4}Conclusions}{13}}
\newlabel{Conclusions}{{4}{13}}
\newlabel{diff}{{5}{14}}
\bibstyle{rsc}
\bibdata{bib}
\bibcite{Parmesan2003}{{1}{2003}{{Parmesan and Yohe}}{{}}}
\bibcite{Schuth2011}{{2}{2011}{{Schuth}}{{}}}
\bibcite{Eberle2009}{{3}{2009}{{Eberle \emph  {et~al.}}}{{Eberle, Felderhoff, and Sch{\"{u}}th}}}
\bibcite{Muller2013}{{4}{2013}{{M{\"{u}}ller and Arlt}}{{}}}
\bibcite{McKeown2007}{{5}{2007}{{McKeown \emph  {et~al.}}}{{McKeown, Budd, and Book}}}
\bibcite{Germain2009}{{6}{2009}{{Germain \emph  {et~al.}}}{{Germain, Frechet, and Svec}}}
\bibcite{Mandal2010}{{7}{2010}{{Mandal and Gregory}}{{}}}
\bibcite{Liu2010}{{8}{2010}{{Liu \emph  {et~al.}}}{{Liu, Li, Ma, and Cheng}}}
\bibcite{Schlapbach2001}{{9}{2001}{{Schlapbach and Z{\"{u}}ttel}}{{}}}
\bibcite{Duren2009}{{10}{2009}{{D{\"{u}}ren \emph  {et~al.}}}{{D{\"{u}}ren, Bae, and Snurr}}}
\bibcite{Pukazhselvan2012}{{11}{2012}{{Pukazhselvan \emph  {et~al.}}}{{Pukazhselvan, Kumar, and Singh}}}
\bibcite{Fairen-Jimenez2011}{{12}{2011}{{Fairen-Jimenez \emph  {et~al.}}}{{Fairen-Jimenez, Moggach, Wharmby, Wright, Parsons, and D{\"{u}}ren}}}
\bibcite{Trewin2008}{{13}{2008}{{Trewin \emph  {et~al.}}}{{Trewin, Willock, and Cooper}}}
\bibcite{McKeown2006}{{14}{2006}{{McKeown and Budd}}{{}}}
\bibcite{Abbott2011}{{15}{2011}{{Colina* and M.}}{{}}}
\bibcite{Dawson2012}{{16}{2012}{{Dawson \emph  {et~al.}}}{{Dawson, Cooper, and Adams}}}
\bibcite{Larsen2011}{{17}{2011}{{Larsen \emph  {et~al.}}}{{Larsen, Lin, Siperstein, and Colina}}}
\bibcite{Madkour2013}{{18}{2013}{{Madkour and Mark}}{{}}}
\bibcite{Minelli2013}{{19}{2013}{{Minelli \emph  {et~al.}}}{{Minelli, Friess, Vopi{\v {c}}ka, and {De Angelis}}}}
\bibcite{Heuchel2008}{{20}{2008}{{Heuchel \emph  {et~al.}}}{{Heuchel, Fritsch, Budd, McKeown, and Hofmann}}}
\bibcite{Wood2007}{{21}{2007}{{Wood \emph  {et~al.}}}{{Wood, Tan, Trewin, Niu, Bradshaw, Rosseinsky, Khimyak, Campbell, Kirk, Stckel, and Cooper}}}
\bibcite{Jiang2013}{{22}{2013}{{Jiang \emph  {et~al.}}}{{Jiang, Jelfs, Holden, Hasell, Chong, Haranczyk, Trewin, and Cooper}}}
\bibcite{Medronho2012}{{23}{2012}{{Medronho \emph  {et~al.}}}{{Medronho, Romano, Miguel, Stigsson, and Lindman}}}
\bibcite{Krishnamachari2011}{{24}{2011}{{Krishnamachari \emph  {et~al.}}}{{Krishnamachari, Hashaikeh, and Tiner}}}
\bibcite{Perez2010}{{25}{2010}{{P{\'{e}}rez and Samain}}{{}}}
\bibcite{Rahimi2011}{{26}{2011}{{Rahimi and Behrooz}}{{}}}
\bibcite{Oehme2015}{{27}{2015}{{Oehme \emph  {et~al.}}}{{Oehme, Downton, Doblin, Wagner, Gidley, and Bacic}}}
\bibcite{Brown2000}{{28}{2000}{{Brown and Saxena}}{{}}}
\bibcite{Matthews2006}{{29}{2006}{{Matthews \emph  {et~al.}}}{{Matthews, Skopec, Mason, Zuccato, Torget, Sugiyama, Himmel, and Brady}}}
\bibcite{Klemm2005}{{30}{2005}{{Klemm \emph  {et~al.}}}{{Klemm, Heublein, Fink, and Bohn}}}
\bibcite{Atalla1990a}{{31}{1990}{{Atalla}}{{}}}
\bibcite{Ding2006}{{32}{2006}{{Ding and Himmel}}{{}}}
\bibcite{Ciolacu2008}{{33}{2008}{{Ciolacu \emph  {et~al.}}}{{Ciolacu, Ciolacu, and Popa}}}
\bibcite{Nishiyama2003}{{34}{2003}{{Nishiyama \emph  {et~al.}}}{{Nishiyama, Sugiyama, Chanzy, and Langan}}}
\bibcite{Cosgrove2005}{{35}{2005}{{Cosgrove}}{{}}}
\bibcite{Namboori2008}{{36}{2008}{{Namboori \emph  {et~al.}}}{{Namboori, Ramachandran, and Deepa}}}
\bibcite{Damm1997}{{37}{1997}{{Damm \emph  {et~al.}}}{{Damm, Frontera, Tirado-Rives, and Jorgensen}}}
\bibcite{Miyamoto2015}{{38}{2015}{{Miyamoto \emph  {et~al.}}}{{Miyamoto, Yamane, and Ueda}}}
\bibcite{Miyamoto2016}{{39}{2016}{{Miyamoto \emph  {et~al.}}}{{Miyamoto, Schnupf, Crowley, and Brady}}}
\bibcite{Guvench2011}{{40}{2011}{{Guvench \emph  {et~al.}}}{{Guvench, Mallajosyula, Raman, Hatcher, Vanommeslaeghe, Foster, Jamison, and MacKerell}}}
\bibcite{Momany2009}{{41}{2009}{{Momany \emph  {et~al.}}}{{Momany, Willett, and Schnupf}}}
\bibcite{Banks2005}{{42}{2005}{{Banks \emph  {et~al.}}}{{Banks, Beard, Cao, Cho, Damm, Farid, Felts, Halgren, Mainz, Maple, Murphy, Philipp, Repasky, Zhang, Berne, Friesner, Gallicchio, and Levy}}}
\bibcite{Hadden2013}{{43}{2013}{{Hadden \emph  {et~al.}}}{{Hadden, French, and Woods}}}
\bibcite{Bergenstrahle2010}{{44}{2010}{{Bergenstr{\r a}hle and Matthews}}{{}}}
\bibcite{Bergenstrahle2008a}{{45}{2008}{{Bergenstr{\r a}hle \emph  {et~al.}}}{{Bergenstr{\r a}hle, Wohlert, Larsson, Mazeau, and Berglund}}}
\bibcite{Liao2012}{{46}{2012}{{Liao \emph  {et~al.}}}{{Liao, Zhu, Zhou, Zhang, Yan, Zhu, and Gu}}}
\bibcite{Kulasinski2014}{{47}{2014}{{Kulasinski \emph  {et~al.}}}{{Kulasinski, Keten, Churakov, Derome, and Carmeliet}}}
\bibcite{Tanaka2006}{{48}{2006}{{Tanaka and Iwata}}{{}}}
\bibcite{Djahedi2015}{{49}{2015}{{Djahedi \emph  {et~al.}}}{{Djahedi, Berglund, and Wohlert}}}
\bibcite{Bergenstrahle2007}{{50}{2007}{{Bergenstr{\r a}hle \emph  {et~al.}}}{{Bergenstr{\r a}hle, Berglund, and Mazeau}}}
\bibcite{Chen2012}{{51}{2012}{{Chen \emph  {et~al.}}}{{Chen, Nishiyama, and Mazeau}}}
\bibcite{Chen2004a}{{52}{2004}{{Chen \emph  {et~al.}}}{{Chen, Lickfield, and Yang}}}
\bibcite{Wohlert2012}{{53}{2012}{{Wohlert \emph  {et~al.}}}{{Wohlert, Bergenstr{\r a}hle-Wohlert, and Berglund}}}
\bibcite{Bazooyar2013}{{54}{2013}{{Bazooyar \emph  {et~al.}}}{{Bazooyar, Taherzadeh, Niklasson, and Bolton}}}
\bibcite{Glasser2012}{{55}{2012}{{Glasser \emph  {et~al.}}}{{Glasser, Atalla, Blackwell, Brown, Walther, Alfred, Klemm, and Nishiyama}}}
\bibcite{Heiner1998}{{56}{1998}{{Heiner \emph  {et~al.}}}{{Heiner, Kuutti, and Teleman}}}
\bibcite{Li2015}{{57}{2015}{{Li \emph  {et~al.}}}{{Li, P{\'{e}}rr{\'{e}}, Frank, and Mazeau}}}
\bibcite{Mazeau2012}{{58}{2012}{{Mazeau and Wyszomirski}}{{}}}
\bibcite{Woodcock1995}{{59}{1995}{{Woodcock \emph  {et~al.}}}{{Woodcock, Henrissat, and Sugiyama}}}
\bibcite{DaSilvaPerez2004}{{60}{2004}{{{Da Silva Perez} \emph  {et~al.}}}{{{Da Silva Perez}, Ruggiero, Morais, Machado, and Mazeau}}}
\bibcite{Todorov2006}{{61}{2006}{{Todorov \emph  {et~al.}}}{{Todorov, Smith, Trachenko, and Dove}}}
\bibcite{Purton2013}{{62}{2013}{{Purton \emph  {et~al.}}}{{Purton, Crabtree, and Parker}}}
\bibcite{Yong2016}{{63}{2016}{{Yong}}{{}}}
\bibcite{Gomes2012}{{64}{2012}{{Gomes and Skaf}}{{}}}
\bibcite{Nishiyama2003a}{{65}{2003}{{Nishiyama \emph  {et~al.}}}{{Nishiyama, Sugiyama, Chanzy, and Langan}}}
\bibcite{VanderHart1987}{{66}{1987}{{VanderHart and Atalla}}{{}}}
\bibcite{Park2006}{{67}{2006}{{Park \emph  {et~al.}}}{{Park, Venditti, Jameel, and Pawlak}}}
\bibcite{Guo2006}{{68}{2013}{{Guo \emph  {et~al.}}}{{Guo, Zhou, and Lv}}}
\bibcite{Maxwell2015}{{69}{2015}{{Maxwell \emph  {et~al.}}}{{Maxwell, Tirado-rives, Jorgensen, Maxwell, and Tirado-rives}}}
\bibcite{Jorgensen1996}{{70}{1996}{{Jorgensen \emph  {et~al.}}}{{Jorgensen, Maxwell, and Tirado-Rives}}}
\bibcite{Kony2001}{{71}{2002}{{Kony \emph  {et~al.}}}{{Kony, Damm, Stoll, and {Van Gunsteren}}}}
\bibcite{Spycher1988}{{72}{1988}{{Spycher and Reed}}{{}}}
\bibcite{Bimbo2013}{{73}{2013}{{Bimbo \emph  {et~al.}}}{{Bimbo, Ting, Sharpe, and Mays}}}
\endpage{16}
\questionmark{}
